TidyModels - PCA and UMAP
…
Reducing dimensions in such a case would help in finding out which
cocktail is closely related to the other in terms of their
components.

Loading packages

Loading Data

Data Cleaning and
Exploratory Data Analysis

Preliminary look at the data

# A tibble: 3,643 × 6
   name            category row_id ingredient_numb… ingredient measure
   <chr>           <chr>     <dbl>            <dbl> <chr>      <chr>  
 1 Gauguin         Cocktai…      1                1 Light Rum  2 oz   
 2 Gauguin         Cocktai…      1                2 Passion F… 1 oz   
 3 Gauguin         Cocktai…      1                3 Lemon Jui… 1 oz   
 4 Gauguin         Cocktai…      1                4 Lime Juice 1 oz   
 5 Fort Lauderdale Cocktai…      2                1 Light Rum  1 1/2 …
 6 Fort Lauderdale Cocktai…      2                2 Sweet Ver… 1/2 oz 
 7 Fort Lauderdale Cocktai…      2                3 Juice of … 1/4 oz 
 8 Fort Lauderdale Cocktai…      2                4 Juice of … 1/4 oz 
 9 Apple Pie       Cordial…      3                1 Apple sch… 3 oz   
10 Apple Pie       Cordial…      3                2 Cinnamon … 1 oz   
# … with 3,633 more rows

So the PCA should be carried out for the “name” field and looking at
the relation between the cocktail and the incredients, category and the
measured amount of each ingredient used.

Most Common Ingredients

# A tibble: 569 × 2
   ingredient            n
   <chr>             <int>
 1 Gin                 176
 2 Fresh lemon juice   138
 3 Simple Syrup        115
 4 Vodka               114
 5 Light Rum           113
 6 Dry Vermouth        107
 7 Fresh Lime Juice    107
 8 Triple Sec          107
 9 Powdered Sugar       90
10 Grenadine            85
# … with 559 more rows
…
“grapefruit” to “grapefruit juice” (same for orange)

Some of the main changes needed in the measure:

1/2 to 0.5

3/4 to 0.75

1/4 to 0.25

remove words like “dash”, and “oz” etc.

Convert the entire column into a number

# A tibble: 2,542 × 7
   name            category row_id ingredient_numb… ingredient measure
   <chr>           <chr>     <dbl>            <dbl> <chr>      <chr>  
 1 Gauguin         Cocktai…      1                1 light rum  2 oz   
 2 Gauguin         Cocktai…      1                3 lemon jui… 1 oz   
 3 Gauguin         Cocktai…      1                4 lime juice 1 oz   
 4 Fort Lauderdale Cocktai…      2                1 light rum  1.5 oz 
 5 Fort Lauderdale Cocktai…      2                2 sweet ver… .5 oz  
 6 Fort Lauderdale Cocktai…      2                3 orange ju… .25 oz 
 7 Fort Lauderdale Cocktai…      2                4 lime juice .25 oz 
 8 Cuban Cocktail… Cocktai…      4                1 lime juice .5 oz  
 9 Cuban Cocktail… Cocktai…      4                2 powdered … .5 oz  
10 Cuban Cocktail… Cocktai…      4                3 light rum  2 oz   
# … with 2,532 more rows, and 1 more variable: measure_number <dbl>

New Dataframe with a “wide”
format

We’re now close to beginning our analysis. However, the data is in
long format and PCA prefers to get the data wider. So we’ll pivot_wide
to make the analysis easier.

# A tibble: 937 × 42
   name       category light_rum lemon_juice lime_juice sweet_vermouth
   <chr>      <chr>        <dbl>       <dbl>      <dbl>          <dbl>
 1 Gauguin    Cocktai…      2           1          1               0  
 2 Fort Laud… Cocktai…      1.5         0          0.25            0.5
 3 Cuban Coc… Cocktai…      2           0          0.5             0  
 4 Cool Carl… Cocktai…      0           0          0               0  
 5 John Coll… Whiskies      0           1          0               0  
 6 Cherry Rum Cocktai…      1.25        0          0               0  
 7 Casa Blan… Cocktai…      2           0          1.5             0  
 8 Caribbean… Cocktai…      0.5         0          0               0  
 9 Amber Amo… Cordial…      0           0.25       0               0  
10 The Joe L… Whiskies      0           0.5        0               0  
# … with 927 more rows, and 36 more variables: orange_juice <dbl>,
#   powdered_sugar <dbl>, dark_rum <dbl>, cranberry_juice <dbl>,
#   pineapple_juice <dbl>, bourbon_whiskey <dbl>, simple_syrup <dbl>,
#   cherry_flavored_brandy <dbl>, light_cream <dbl>,
#   triple_sec <dbl>, maraschino <dbl>, amaretto <dbl>,
#   grenadine <dbl>, apple_brandy <dbl>, brandy <dbl>, gin <dbl>,
#   anisette <dbl>, dry_vermouth <dbl>, …
…
Training data contained 937 data points and no missing data.

Operations:

Centering and scaling for light_rum, lemon_juice, lime_juice, s... [trained]
PCA extraction with light_rum, lemon_juice, lime_juice, sw... [trained]

The prep object now doesn’t contain any output, and we need to tidy
the object to read it. List object contains the PCA “results” and
components on the 2nd place under “term_info” (open it in the console to
see details).

PCA Table

# A tibble: 1,600 × 4
   terms             value component id       
   <chr>             <dbl> <chr>     <chr>    
 1 light_rum        0.163  PC1       pca_mZJaF
 2 lemon_juice     -0.0140 PC1       pca_mZJaF
 3 lime_juice       0.224  PC1       pca_mZJaF
 4 sweet_vermouth  -0.0661 PC1       pca_mZJaF
 5 orange_juice     0.0308 PC1       pca_mZJaF
 6 powdered_sugar  -0.476  PC1       pca_mZJaF
 7 dark_rum         0.124  PC1       pca_mZJaF
 8 cranberry_juice  0.0954 PC1       pca_mZJaF
 9 pineapple_juice  0.119  PC1       pca_mZJaF
10 bourbon_whiskey  0.0963 PC1       pca_mZJaF
# … with 1,590 more rows
…
