Karat Sidhu - NBA in R
…
nba <- read_csv("/Users/karatatiwantsinghsidhu/Google Drive/Code/GitHub/karat_codes/posts/nba-clustering/data/nbaplayersdraft.csv")

Rows: 1922 Columns: 24
── Column specification ────────────────────────────────────────────────────────
Delimiter: ","
chr  (3): team, player, college
dbl (21): id, year, rank, overall_pick, years_active, games, minutes_played,...

ℹ Use `spec()` to retrieve the full column specification for this data.
ℹ Specify the column types or set `show_col_types = FALSE` to quiet this message.

nba  |>  as_tibble()

# A tibble: 1,922 × 24
      id  year  rank overall…¹ team  player college years…² games minut…³ points
   <dbl> <dbl> <dbl>     <dbl> <chr> <chr>  <chr>     <dbl> <dbl>   <dbl>  <dbl>
 1     1  1989     1         1 SAC   Pervi… Louisv…      11   474   11593   4494
 2     2  1989     2         2 LAC   Danny… Duke         13   917   18133   6439
 3     3  1989     3         3 SAS   Sean … Arizona      12   742   24502  10544
 4     4  1989     4         4 MIA   Glen … Michig…      15  1000   34985  18336
 5     5  1989     5         5 CHH   J.R. … UNC          11   672   15370   5680
 6     6  1989     6         6 CHI   Stace… Oklaho…       8   438    7406   2819
 7     7  1989     7         7 IND   Georg… Florid…      12   766   17429   6925
 8     8  1989     8         8 DAL   Randy… Louisi…       5   281    5382   2083
 9     9  1989     9         9 WSB   Tom H… Georgi…      12   687   10419   3617
10    10  1989    10        10 MIN   Pooh … UCLA         10   639   19399   7083
# … with 1,912 more rows, 13 more variables: total_rebounds <dbl>,
#   assists <dbl>, field_goal_percentage <dbl>, `3_point_percentage` <dbl>,
#   free_throw_percentage <dbl>, average_minutes_played <dbl>,
#   points_per_game <dbl>, average_total_rebounds <dbl>, average_assists <dbl>,
#   win_shares <dbl>, win_shares_per_48_minutes <dbl>, box_plus_minus <dbl>,
#   value_over_replacement <dbl>, and abbreviated variable names ¹​overall_pick,
#   ²​years_active, ³​minutes_played
…
